Intro to R and Data Visualization with ggplot2: Session 2 part 2
…
```
##  [1] "date"        "county.x"    "state.x"     "fips"        "cases"      
##  [6] "deaths"      "coastal"     "countyst"    "case_diffs"  "maxcases"   
## [11] "diffs_cases" "diffs_roll"  "pop2019"     "county.y"    "state.y"    
## [16] "fips_st"     "fips_ct"
```

```r
ct_test[, c("county.x", "fips", "county.y")]
```

```
## # A tibble: 251,934 x 3
##    county.x    fips  county.y          
##    <fct>       <chr> <fct>             
##  1 Snohomish   53061 Snohomish County  
##  2 Snohomish   53061 Snohomish County  
##  3 Snohomish   53061 Snohomish County  
##  4 Cook        17031 Cook County       
##  5 Snohomish   53061 Snohomish County  
##  6 Orange      6059  Orange County     
##  7 Cook        17031 Cook County       
##  8 Snohomish   53061 Snohomish County  
##  9 Maricopa    4013  Maricopa County   
## 10 Los Angeles 6037  Los Angeles County
## # ... with 251,924 more rows
```
…
